'########::'########::'######::'########:'####:'########::::'###:::::'######::
 ##.... ##: ##.....::'##... ##: ##.....::. ##::... ##..::::'## ##:::'##... ##:
 ##:::: ##: ##::::::: ##:::..:: ##:::::::: ##::::: ##:::::'##:. ##:: ##:::..::
 ########:: ######::: ##::::::: ######:::: ##::::: ##::::'##:::. ##:. ######::
 ##.. ##::: ##...:::: ##::::::: ##...::::: ##::::: ##:::: #########::..... ##:
 ##::. ##:: ##::::::: ##::: ##: ##:::::::: ##::::: ##:::: ##.... ##:'##::: ##:
 ##:::. ##: ########:. ######:: ########:'####:::: ##:::: ##:::: ##:. ######::
..:::::..::........:::......:::........::....:::::..:::::..:::::..:::......:::
${AnsiColor.BRIGHT_BLUE}:: Aplicação de Receitas :: Rodando Spring Boot ${spring-boot.version} ::
:: https://receitas.com.br :: ${AnsiColor.DEFAULT}